<?xml version="1.0" encoding="utf-8"?>
<!-- Generator: Adobe Illustrator 22.0.1, SVG Export Plug-In . SVG Version: 6.00 Build 0)  -->
<svg version="1.1" id="cbmi_x5F_Logo" xmlns="http://www.w3.org/2000/svg" xmlns:xlink="http://www.w3.org/1999/xlink" x="0px"
	 y="0px" viewBox="0 0 218 85" style="enable-background:new 0 0 218 85;" xml:space="preserve">
<style type="text/css">
	.st0{fill:#86BC25;}
</style>
<g>
	<path class="st0" d="M21.5,27.5c-0.3-1.1-0.3-1.9-0.3-3.7c0-1.7,0.1-2.6,0.3-3.7c0.6-2.7,2.7-4.6,6-4.6c3.1,0,5.2,1.3,5.8,4.3
		c0.1,0.6,0.2,1.3,0.2,2.1v0.5h-3.9v-0.3c0-0.4,0-0.7,0-1c-0.2-1.4-0.9-2.1-2.2-2.1c-1.4,0-2,0.8-2.2,2.2c-0.1,0.6-0.1,1.7-0.1,2.6
		c0,1,0,1.9,0.1,2.5c0.3,1.4,1,2.3,2.5,2.3c1.5,0,2.5-0.9,3.1-2.1l2.6,2.5c-1.2,2.1-3.5,3.2-5.8,3.2C24.2,32.2,22.2,30.3,21.5,27.5z
		"/>
	<path class="st0" d="M40.2,30.6L40,31.8h-3.3V9.9h3.9v6.8c0.9-0.7,2-1.1,3.6-1.1c2.8,0,4.9,1.9,5.5,4.6c0.2,1.1,0.3,1.9,0.3,3.6
		c0,1.8-0.1,2.7-0.3,3.8c-0.6,2.8-2.9,4.6-5.7,4.6C42.2,32.2,41,31.5,40.2,30.6z M45.9,26.4c0.1-0.6,0.2-1.6,0.2-2.5
		c0-1,0-1.9-0.2-2.7c-0.3-1.3-1.1-2.2-2.5-2.2c-1.4,0-2.3,0.9-2.5,2.2c-0.2,0.8-0.2,1.7-0.2,2.6c0,1,0,1.8,0.2,2.7
		c0.3,1.3,1.1,2.1,2.5,2.1C44.7,28.7,45.7,27.8,45.9,26.4z"/>
	<path class="st0" d="M57.2,31.8h-3.9V15.9h3.3l0.2,1.2c0.9-1.1,2.1-1.6,3.4-1.6c1.4,0,2.4,0.4,3.5,1.7c1.2-1.2,2.9-1.7,4-1.7
		c3.2,0,5.1,2.3,5.1,5v11.3h-3.9V21c0-1.1-0.8-1.8-1.9-1.8c-1.1,0-1.9,0.7-1.9,1.8v10.8H61V21c0-1.1-0.9-1.8-1.9-1.8
		c-1.1,0-1.9,0.7-1.9,1.8V31.8z"/>
	<g>
		<path class="st0" d="M76.5,31.8V15.9h3.9v15.9H76.5z"/>
		<rect x="76.6" y="9.9" class="st0" width="3.9" height="3.7"/>
	</g>
</g>
<g>
	<path d="M55.2,48.9c-0.3,0-0.6,0-0.8-0.1s-0.5-0.2-0.7-0.3c-0.2-0.1-0.3-0.3-0.5-0.5c-0.1-0.2-0.2-0.4-0.3-0.6
		c0-0.1-0.1-0.2-0.1-0.3c0-0.1,0-0.2-0.1-0.4c0-0.1,0-0.3,0-0.5s0-0.4,0-0.7s0-0.5,0-0.7s0-0.4,0-0.5c0-0.1,0-0.3,0.1-0.4
		c0-0.1,0.1-0.2,0.1-0.3c0.1-0.2,0.2-0.4,0.3-0.6c0.1-0.2,0.3-0.3,0.5-0.5c0.2-0.1,0.4-0.2,0.6-0.3c0.2-0.1,0.5-0.1,0.8-0.1
		c0.6,0,1,0.1,1.4,0.4s0.6,0.6,0.8,1c0.1,0.3,0.2,0.7,0.2,1.1v0.2h-1.3v-0.1c0-0.3,0-0.5-0.1-0.6c-0.1-0.3-0.2-0.5-0.4-0.6
		s-0.4-0.2-0.6-0.2c-0.2,0-0.3,0-0.5,0.1c-0.1,0-0.2,0.1-0.3,0.2c-0.1,0.1-0.2,0.2-0.2,0.3C54.1,44,54,44.1,54,44.2
		c0,0.1,0,0.1,0,0.2c0,0.1,0,0.1,0,0.2s0,0.2,0,0.4c0,0.1,0,0.3,0,0.5c0,0.2,0,0.4,0,0.5c0,0.1,0,0.3,0,0.3c0,0.1,0,0.2,0,0.2
		c0,0.1,0,0.1,0,0.2c0,0.1,0.1,0.2,0.1,0.3c0.1,0.1,0.1,0.2,0.2,0.3c0.1,0.1,0.2,0.2,0.3,0.2c0.1,0,0.3,0.1,0.5,0.1
		c0.4,0,0.7-0.1,0.9-0.3c0.2-0.2,0.4-0.4,0.5-0.7l0.9,0.9c-0.1,0.2-0.2,0.3-0.4,0.5s-0.3,0.3-0.5,0.4s-0.4,0.2-0.6,0.3
		C55.7,48.8,55.5,48.9,55.2,48.9z"/>
	<path d="M60.2,43.7c0.5,0,0.9,0.1,1.2,0.4s0.5,0.6,0.6,1c0,0.1,0.1,0.3,0.1,0.4c0,0.1,0,0.3,0,0.5c0,0.1,0,0.2,0,0.4
		c0,0.1,0,0.3,0,0.4h-2.7c0,0.1,0,0.2,0,0.3c0,0.2,0.1,0.4,0.3,0.5s0.3,0.2,0.6,0.2c0.2,0,0.4,0,0.5-0.1c0.2-0.1,0.3-0.2,0.5-0.5
		l0.8,0.8c-0.2,0.3-0.5,0.6-0.8,0.7c-0.3,0.1-0.7,0.2-1,0.2c-0.5,0-1-0.1-1.3-0.4c-0.3-0.3-0.5-0.6-0.6-1c0-0.2-0.1-0.3-0.1-0.5
		c0-0.2,0-0.4,0-0.7s0-0.5,0-0.7c0-0.2,0-0.3,0.1-0.5c0.1-0.4,0.3-0.8,0.6-1S59.7,43.7,60.2,43.7z M60.2,44.8
		c-0.2,0-0.4,0.1-0.5,0.2c-0.1,0.1-0.2,0.3-0.2,0.5c0,0.1,0,0.2,0,0.4h1.5c0-0.1,0-0.2,0-0.2c0-0.1,0-0.1,0-0.1
		c0-0.2-0.1-0.4-0.2-0.5C60.5,44.8,60.4,44.8,60.2,44.8z"/>
	<path d="M64.3,48.8h-1.2v-5h1l0.1,0.5c0.1-0.2,0.3-0.3,0.5-0.4c0.2-0.1,0.4-0.1,0.6-0.1c0.5,0,0.9,0.2,1.2,0.5
		c0.3,0.3,0.4,0.7,0.4,1.2v3.4h-1.2v-3.2c0-0.2-0.1-0.4-0.2-0.5c-0.1-0.1-0.3-0.2-0.5-0.2c-0.2,0-0.4,0.1-0.5,0.2
		c-0.1,0.1-0.2,0.3-0.2,0.5V48.8z"/>
	<path d="M70.4,48.8c-0.2,0.1-0.4,0.1-0.6,0.1c-0.4,0-0.8-0.1-1-0.4s-0.4-0.7-0.4-1.2v-2.4h-0.6v-1.1h0.6v-1.4h1.2v1.4h1.2v1.1h-1.2
		v2.4c0,0.2,0,0.3,0.1,0.4c0.1,0.1,0.2,0.1,0.3,0.1c0.2,0,0.4-0.1,0.5-0.2l0.4,1C70.7,48.7,70.6,48.7,70.4,48.8z"/>
	<path d="M72.8,48.8h-1.2v-5h1l0.1,0.5c0.1-0.2,0.3-0.4,0.5-0.5c0.2-0.1,0.4-0.1,0.6-0.1c0,0,0.1,0,0.2,0c0.1,0,0.2,0,0.3,0v1.2
		c-0.2,0-0.3-0.1-0.4-0.1s-0.2,0-0.3,0c-0.2,0-0.4,0.1-0.5,0.2c-0.1,0.1-0.2,0.3-0.2,0.6V48.8z"/>
	<path d="M76.6,43.7c0.5,0,0.9,0.1,1.2,0.4s0.5,0.6,0.6,1c0,0.1,0.1,0.3,0.1,0.4c0,0.1,0,0.3,0,0.5c0,0.1,0,0.2,0,0.4
		c0,0.1,0,0.3,0,0.4h-2.7c0,0.1,0,0.2,0,0.3c0,0.2,0.1,0.4,0.3,0.5s0.3,0.2,0.6,0.2c0.2,0,0.4,0,0.5-0.1c0.2-0.1,0.3-0.2,0.5-0.5
		l0.8,0.8c-0.2,0.3-0.5,0.6-0.8,0.7c-0.3,0.1-0.7,0.2-1,0.2c-0.5,0-1-0.1-1.3-0.4c-0.3-0.3-0.5-0.6-0.6-1c0-0.2-0.1-0.3-0.1-0.5
		c0-0.2,0-0.4,0-0.7s0-0.5,0-0.7c0-0.2,0-0.3,0.1-0.5c0.1-0.4,0.3-0.8,0.6-1S76.1,43.7,76.6,43.7z M76.6,44.8
		c-0.2,0-0.4,0.1-0.5,0.2c-0.1,0.1-0.2,0.3-0.2,0.5c0,0.1,0,0.2,0,0.4h1.5c0-0.1,0-0.2,0-0.2c0-0.1,0-0.1,0-0.1
		c0-0.2-0.1-0.4-0.2-0.5C77,44.8,76.8,44.8,76.6,44.8z"/>
	<path d="M83,44.9v3.9h-1.2v-3.9h-0.6v-1.1h0.6v-0.4c0-0.5,0.1-0.9,0.4-1.2c0.3-0.3,0.6-0.4,1.1-0.4c0.3,0,0.5,0,0.6,0.1
		c0.2,0,0.3,0.1,0.5,0.2l-0.4,1c-0.1-0.1-0.3-0.1-0.5-0.1c-0.1,0-0.2,0-0.3,0.1c-0.1,0.1-0.1,0.2-0.1,0.4v0.4h1v1.1H83z"/>
	<path d="M86.6,48.9c-0.5,0-0.9-0.1-1.3-0.4s-0.6-0.6-0.7-1c0-0.2-0.1-0.3-0.1-0.5c0-0.2,0-0.4,0-0.7s0-0.5,0-0.7
		c0-0.2,0-0.3,0.1-0.5c0.1-0.4,0.3-0.8,0.7-1s0.8-0.4,1.3-0.4c0.5,0,0.9,0.1,1.3,0.4s0.6,0.6,0.7,1c0,0.2,0.1,0.3,0.1,0.5
		c0,0.2,0,0.4,0,0.7s0,0.5,0,0.7c0,0.2,0,0.3-0.1,0.5c-0.1,0.2-0.1,0.4-0.3,0.6c-0.1,0.2-0.3,0.3-0.4,0.5c-0.2,0.1-0.4,0.2-0.6,0.3
		C87.1,48.8,86.8,48.9,86.6,48.9z M86.6,47.8c0.2,0,0.4-0.1,0.5-0.2c0.1-0.1,0.2-0.3,0.2-0.4c0-0.2,0.1-0.3,0.1-0.5
		c0-0.1,0-0.3,0-0.4c0-0.1,0-0.3,0-0.5c0-0.2,0-0.3-0.1-0.5c0-0.2-0.1-0.3-0.2-0.4c-0.1-0.1-0.3-0.2-0.5-0.2c-0.2,0-0.4,0.1-0.5,0.2
		c-0.1,0.1-0.2,0.3-0.2,0.4c0,0.1,0,0.3,0,0.4s0,0.3,0,0.5c0,0.2,0,0.3,0,0.4c0,0.1,0,0.3,0,0.4c0,0.2,0.1,0.3,0.2,0.5
		C86.2,47.7,86.4,47.8,86.6,47.8z"/>
	<path d="M90.9,48.8h-1.2v-5h1l0.1,0.5c0.1-0.2,0.3-0.4,0.5-0.5c0.2-0.1,0.4-0.1,0.6-0.1c0,0,0.1,0,0.2,0c0.1,0,0.2,0,0.3,0v1.2
		c-0.2,0-0.3-0.1-0.4-0.1s-0.2,0-0.3,0c-0.2,0-0.4,0.1-0.5,0.2c-0.1,0.1-0.2,0.3-0.2,0.6V48.8z"/>
	<path d="M97.2,48.9c-0.3,0-0.5,0-0.7-0.1c-0.2-0.1-0.3-0.2-0.5-0.4l-0.1,0.4h-1v-6.9h1.2V44c0.1-0.1,0.3-0.2,0.5-0.3
		c0.2-0.1,0.4-0.1,0.6-0.1c0.4,0,0.8,0.1,1.1,0.4s0.5,0.6,0.6,1.1c0,0.2,0.1,0.3,0.1,0.5c0,0.2,0,0.4,0,0.6s0,0.5,0,0.7
		c0,0.2,0,0.3-0.1,0.5c-0.1,0.4-0.3,0.8-0.6,1C98,48.8,97.6,48.9,97.2,48.9z M97,47.8c0.2,0,0.4-0.1,0.5-0.2
		c0.1-0.1,0.2-0.3,0.3-0.5c0-0.1,0-0.2,0-0.4s0-0.3,0-0.4s0-0.3,0-0.5c0-0.1,0-0.3,0-0.4c0-0.2-0.1-0.4-0.3-0.5s-0.3-0.2-0.5-0.2
		s-0.4,0.1-0.5,0.2c-0.1,0.1-0.2,0.3-0.3,0.5c0,0.1,0,0.3,0,0.4c0,0.1,0,0.3,0,0.4s0,0.3,0,0.5c0,0.2,0,0.3,0,0.4
		c0,0.2,0.1,0.4,0.3,0.5C96.6,47.7,96.8,47.8,97,47.8z"/>
	<path d="M100.7,43.3c-0.2,0-0.4-0.1-0.5-0.2c-0.1-0.2-0.2-0.3-0.2-0.5c0-0.2,0.1-0.4,0.2-0.5c0.1-0.1,0.3-0.2,0.5-0.2
		c0.2,0,0.4,0.1,0.5,0.2c0.1,0.1,0.2,0.3,0.2,0.5c0,0.2-0.1,0.4-0.2,0.5C101,43.2,100.9,43.3,100.7,43.3z M100,48.8v-5h1.2v5H100z"
		/>
	<path d="M104.3,48.9c-0.5,0-0.9-0.1-1.3-0.4s-0.6-0.6-0.7-1c0-0.2-0.1-0.3-0.1-0.5c0-0.2,0-0.4,0-0.7s0-0.5,0-0.7
		c0-0.2,0-0.3,0.1-0.5c0.1-0.4,0.3-0.8,0.7-1s0.8-0.4,1.3-0.4c0.5,0,0.9,0.1,1.3,0.4s0.6,0.6,0.7,1c0,0.2,0.1,0.3,0.1,0.5
		c0,0.2,0,0.4,0,0.7s0,0.5,0,0.7c0,0.2,0,0.3-0.1,0.5c-0.1,0.2-0.1,0.4-0.3,0.6c-0.1,0.2-0.3,0.3-0.4,0.5c-0.2,0.1-0.4,0.2-0.6,0.3
		C104.8,48.8,104.6,48.9,104.3,48.9z M104.3,47.8c0.2,0,0.4-0.1,0.5-0.2c0.1-0.1,0.2-0.3,0.2-0.4c0-0.2,0.1-0.3,0.1-0.5
		c0-0.1,0-0.3,0-0.4c0-0.1,0-0.3,0-0.5c0-0.2,0-0.3-0.1-0.5c0-0.2-0.1-0.3-0.2-0.4c-0.1-0.1-0.3-0.2-0.5-0.2c-0.2,0-0.4,0.1-0.5,0.2
		c-0.1,0.1-0.2,0.3-0.2,0.4c0,0.1,0,0.3,0,0.4s0,0.3,0,0.5c0,0.2,0,0.3,0,0.4c0,0.1,0,0.3,0,0.4c0,0.2,0.1,0.3,0.2,0.5
		C103.9,47.7,104.1,47.8,104.3,47.8z"/>
	<path d="M108.6,48.8h-1.2v-5h1l0,0.4c0.1-0.2,0.3-0.3,0.5-0.4c0.2-0.1,0.4-0.1,0.6-0.1c0.2,0,0.4,0,0.6,0.1
		c0.2,0.1,0.3,0.2,0.5,0.4c0.2-0.2,0.4-0.3,0.6-0.4c0.2-0.1,0.4-0.1,0.6-0.1c0.3,0,0.5,0,0.7,0.1s0.4,0.2,0.5,0.3
		c0.1,0.1,0.2,0.3,0.3,0.5c0.1,0.2,0.1,0.4,0.1,0.6v3.5h-1.2v-3.4c0-0.2-0.1-0.3-0.2-0.4c-0.1-0.1-0.3-0.2-0.4-0.2
		c-0.2,0-0.3,0.1-0.4,0.2c-0.1,0.1-0.2,0.2-0.2,0.4v3.4h-1.2v-3.4c0-0.2-0.1-0.3-0.2-0.4c-0.1-0.1-0.3-0.2-0.4-0.2
		c-0.2,0-0.3,0.1-0.4,0.2c-0.1,0.1-0.2,0.2-0.2,0.4V48.8z"/>
	<path d="M116.4,43.7c0.5,0,0.9,0.1,1.2,0.4s0.5,0.6,0.6,1c0,0.1,0.1,0.3,0.1,0.4c0,0.1,0,0.3,0,0.5c0,0.1,0,0.2,0,0.4
		c0,0.1,0,0.3,0,0.4h-2.7c0,0.1,0,0.2,0,0.3c0,0.2,0.1,0.4,0.3,0.5s0.3,0.2,0.6,0.2c0.2,0,0.4,0,0.5-0.1c0.2-0.1,0.3-0.2,0.5-0.5
		l0.8,0.8c-0.2,0.3-0.5,0.6-0.8,0.7c-0.3,0.1-0.7,0.2-1,0.2c-0.5,0-1-0.1-1.3-0.4c-0.3-0.3-0.5-0.6-0.6-1c0-0.2-0.1-0.3-0.1-0.5
		c0-0.2,0-0.4,0-0.7s0-0.5,0-0.7c0-0.2,0-0.3,0.1-0.5c0.1-0.4,0.3-0.8,0.6-1S115.9,43.7,116.4,43.7z M116.4,44.8
		c-0.2,0-0.4,0.1-0.5,0.2c-0.1,0.1-0.2,0.3-0.2,0.5c0,0.1,0,0.2,0,0.4h1.5c0-0.1,0-0.2,0-0.2c0-0.1,0-0.1,0-0.1
		c0-0.2-0.1-0.4-0.2-0.5C116.8,44.8,116.6,44.8,116.4,44.8z"/>
	<path d="M122.2,48.4c-0.1,0.1-0.3,0.3-0.5,0.4s-0.4,0.1-0.7,0.1c-0.5,0-0.8-0.1-1.1-0.4s-0.5-0.6-0.6-1.1c0-0.2-0.1-0.3-0.1-0.5
		c0-0.2,0-0.4,0-0.7s0-0.5,0-0.7c0-0.2,0-0.3,0.1-0.5c0-0.2,0.1-0.4,0.2-0.6c0.1-0.2,0.2-0.3,0.4-0.4c0.2-0.1,0.3-0.2,0.5-0.3
		c0.2-0.1,0.4-0.1,0.6-0.1c0.2,0,0.4,0,0.6,0.1s0.3,0.1,0.4,0.2v-2.1h1.2v6.9h-1L122.2,48.4z M121.2,47.8c0.2,0,0.4-0.1,0.5-0.2
		c0.1-0.1,0.2-0.3,0.3-0.5c0-0.1,0-0.2,0-0.4c0-0.1,0-0.3,0-0.4s0-0.3,0-0.4c0-0.1,0-0.3,0-0.4c0-0.2-0.1-0.4-0.3-0.5
		c-0.1-0.1-0.3-0.2-0.5-0.2c-0.2,0-0.4,0.1-0.5,0.2c-0.1,0.1-0.2,0.3-0.3,0.5c0,0.1,0,0.2,0,0.4c0,0.1,0,0.3,0,0.4s0,0.3,0,0.4
		c0,0.1,0,0.3,0,0.4c0,0.2,0.1,0.4,0.3,0.5C120.8,47.7,120.9,47.8,121.2,47.8z"/>
	<path d="M125,43.3c-0.2,0-0.4-0.1-0.5-0.2c-0.1-0.2-0.2-0.3-0.2-0.5c0-0.2,0.1-0.4,0.2-0.5c0.1-0.1,0.3-0.2,0.5-0.2
		c0.2,0,0.4,0.1,0.5,0.2c0.1,0.1,0.2,0.3,0.2,0.5c0,0.2-0.1,0.4-0.2,0.5C125.4,43.2,125.2,43.3,125,43.3z M124.4,48.8v-5h1.2v5
		H124.4z"/>
	<path d="M128.7,48.9c-0.5,0-1-0.1-1.3-0.4s-0.5-0.6-0.6-1c0-0.2-0.1-0.3-0.1-0.5c0-0.2,0-0.4,0-0.7s0-0.5,0-0.7s0-0.3,0.1-0.5
		c0.1-0.4,0.3-0.8,0.6-1s0.7-0.4,1.3-0.4c0.5,0,0.9,0.1,1.2,0.3s0.5,0.6,0.6,1c0,0.2,0.1,0.4,0.1,0.6v0.1h-1.2v-0.1
		c0-0.1,0-0.1,0-0.2c0,0,0-0.1,0-0.2c0-0.4-0.3-0.7-0.7-0.7c-0.2,0-0.4,0.1-0.5,0.2s-0.2,0.3-0.2,0.5c0,0.1,0,0.2,0,0.4
		c0,0.2,0,0.3,0,0.5c0,0.2,0,0.3,0,0.4c0,0.1,0,0.2,0,0.3c0,0.2,0.1,0.4,0.2,0.5c0.1,0.1,0.3,0.2,0.5,0.2c0.2,0,0.4-0.1,0.6-0.2
		c0.2-0.1,0.3-0.3,0.4-0.5l0.8,0.8c-0.2,0.3-0.4,0.6-0.8,0.7S129,48.9,128.7,48.9z"/>
	<path d="M133.7,48.6c-0.1,0.1-0.2,0.1-0.4,0.2c-0.1,0-0.3,0.1-0.5,0.1c-0.2,0-0.3,0-0.4,0c-0.1,0-0.2,0-0.3-0.1
		c-0.3-0.1-0.6-0.3-0.7-0.5c-0.2-0.2-0.3-0.6-0.3-0.9c0-0.4,0.1-0.7,0.3-0.9c0.2-0.2,0.4-0.4,0.7-0.4c0.1,0,0.2-0.1,0.3-0.1
		c0.1,0,0.3,0,0.4,0c0.3,0,0.5,0,0.7,0.1v-0.6c0-0.2-0.1-0.4-0.2-0.5c-0.1-0.1-0.3-0.2-0.5-0.2c-0.2,0-0.3,0-0.5,0.1
		c-0.1,0.1-0.2,0.3-0.3,0.5l-1-0.6c0.1-0.2,0.2-0.3,0.3-0.5c0.1-0.1,0.2-0.2,0.4-0.3c0.1-0.1,0.3-0.2,0.5-0.2c0.2,0,0.4-0.1,0.6-0.1
		c0.3,0,0.5,0,0.8,0.1c0.2,0.1,0.4,0.2,0.6,0.4s0.3,0.3,0.4,0.5c0.1,0.2,0.1,0.4,0.1,0.6v3.4h-1l0-0.4
		C133.8,48.5,133.8,48.5,133.7,48.6C133.7,48.5,133.7,48.6,133.7,48.6z M133,47.8c0.1,0,0.2,0,0.2,0s0.1,0,0.2,0
		c0.1,0,0.2-0.1,0.2-0.2c0.1-0.1,0.1-0.2,0.1-0.3c0-0.1,0-0.2-0.1-0.3s-0.1-0.1-0.2-0.2c-0.1,0-0.1,0-0.2,0s-0.2,0-0.2,0
		c-0.1,0-0.1,0-0.2,0c-0.1,0-0.1,0-0.2,0c-0.2,0.1-0.3,0.2-0.3,0.5c0,0.1,0,0.2,0.1,0.3s0.1,0.1,0.2,0.2c0.1,0,0.1,0,0.2,0
		S132.9,47.8,133,47.8z"/>
	<path d="M137.2,47.3c0,0.1,0,0.2,0.1,0.3c0.1,0.1,0.2,0.2,0.4,0.2c0.1,0,0.1,0,0.2,0c0.1,0,0.1,0,0.1,0v1.1c-0.1,0-0.2,0-0.3,0
		c-0.1,0-0.2,0-0.3,0c-0.3,0-0.6-0.1-0.9-0.2c-0.2-0.1-0.4-0.3-0.5-0.6c0-0.1-0.1-0.2-0.1-0.4c0-0.1,0-0.3,0-0.4v-5.4h1.2V47.3z"/>
	<path d="M52.6,58.8v-1.2h1.2v-4.2h-1.2v-1.2h3.6v1.2H55v4.2h1.2v1.2H52.6z"/>
	<path d="M58.4,58.8h-1.2v-5h1l0,0.4c0.1-0.2,0.3-0.3,0.5-0.4c0.2-0.1,0.4-0.1,0.6-0.1c0.2,0,0.4,0,0.6,0.1c0.2,0.1,0.3,0.2,0.5,0.4
		c0.2-0.2,0.4-0.3,0.6-0.4c0.2-0.1,0.4-0.1,0.6-0.1c0.3,0,0.5,0,0.7,0.1s0.4,0.2,0.5,0.3c0.1,0.1,0.2,0.3,0.3,0.5
		c0.1,0.2,0.1,0.4,0.1,0.6v3.5H62v-3.4c0-0.2-0.1-0.3-0.2-0.4c-0.1-0.1-0.3-0.2-0.4-0.2c-0.2,0-0.3,0.1-0.4,0.2
		c-0.1,0.1-0.2,0.2-0.2,0.4v3.4h-1.2v-3.4c0-0.2-0.1-0.3-0.2-0.4c-0.1-0.1-0.3-0.2-0.4-0.2c-0.2,0-0.3,0.1-0.4,0.2
		c-0.1,0.1-0.2,0.2-0.2,0.4V58.8z"/>
	<path d="M66.7,58.6c-0.1,0.1-0.2,0.1-0.4,0.2c-0.1,0-0.3,0.1-0.5,0.1c-0.2,0-0.3,0-0.4,0c-0.1,0-0.2,0-0.3-0.1
		c-0.3-0.1-0.6-0.3-0.7-0.5c-0.2-0.2-0.3-0.6-0.3-0.9c0-0.4,0.1-0.7,0.3-0.9c0.2-0.2,0.4-0.4,0.7-0.4c0.1,0,0.2-0.1,0.3-0.1
		c0.1,0,0.3,0,0.4,0c0.3,0,0.5,0,0.7,0.1v-0.6c0-0.2-0.1-0.4-0.2-0.5c-0.1-0.1-0.3-0.2-0.5-0.2c-0.2,0-0.3,0-0.5,0.1
		c-0.1,0.1-0.2,0.3-0.3,0.5l-1-0.6c0.1-0.2,0.2-0.3,0.3-0.5c0.1-0.1,0.2-0.2,0.4-0.3c0.1-0.1,0.3-0.2,0.5-0.2c0.2,0,0.4-0.1,0.6-0.1
		c0.3,0,0.5,0,0.8,0.1c0.2,0.1,0.4,0.2,0.6,0.4s0.3,0.3,0.4,0.5c0.1,0.2,0.1,0.4,0.1,0.6v3.4h-1l0-0.4
		C66.8,58.5,66.8,58.5,66.7,58.6C66.7,58.5,66.7,58.6,66.7,58.6z M66,57.8c0.1,0,0.2,0,0.2,0s0.1,0,0.2,0c0.1,0,0.2-0.1,0.2-0.2
		c0.1-0.1,0.1-0.2,0.1-0.3c0-0.1,0-0.2-0.1-0.3s-0.1-0.1-0.2-0.2c-0.1,0-0.1,0-0.2,0s-0.2,0-0.2,0c-0.1,0-0.1,0-0.2,0
		c-0.1,0-0.1,0-0.2,0c-0.2,0.1-0.3,0.2-0.3,0.5c0,0.1,0,0.2,0.1,0.3s0.1,0.1,0.2,0.2c0.1,0,0.1,0,0.2,0S65.9,57.8,66,57.8z"/>
	<path d="M71.6,60.6c-0.2,0-0.3,0.1-0.4,0.1c-0.1,0-0.2,0-0.4,0c-0.1,0-0.2,0-0.2,0s-0.1,0-0.2,0c-0.1,0-0.1,0-0.2,0
		c-0.1,0-0.1,0-0.2,0c-0.3-0.1-0.6-0.2-0.8-0.5s-0.3-0.5-0.3-0.9c0-0.2,0-0.4,0.1-0.6c0.1-0.2,0.2-0.3,0.3-0.4
		c-0.1-0.1-0.1-0.2-0.2-0.3c0-0.1-0.1-0.2-0.1-0.4c0-0.2,0-0.3,0.1-0.4c0.1-0.1,0.1-0.2,0.2-0.3c-0.2-0.2-0.4-0.3-0.5-0.6
		c-0.1-0.2-0.2-0.5-0.2-0.9c0-0.2,0-0.5,0.1-0.7c0.1-0.2,0.2-0.4,0.3-0.5c0.1-0.2,0.3-0.3,0.4-0.4c0.2-0.1,0.3-0.2,0.5-0.2
		c0.1,0,0.1,0,0.2-0.1c0.1,0,0.1,0,0.2,0c0.1,0,0.1,0,0.2,0c0.1,0,0.2,0,0.3,0c0.2,0,0.4,0,0.5,0c0.1,0,0.2,0,0.4,0.1h1.7v1.2h-0.6
		c0.1,0.2,0.1,0.4,0.1,0.6c0,0.5-0.1,0.9-0.4,1.2c-0.2,0.3-0.5,0.5-0.9,0.6c-0.1,0-0.2,0.1-0.3,0.1c-0.1,0-0.3,0-0.5,0
		c-0.2,0-0.3,0-0.3,0s-0.1,0-0.1,0c-0.1,0-0.1,0-0.1,0.1c0,0-0.1,0.1-0.1,0.2s0,0.1,0,0.2c0,0,0.1,0.1,0.2,0.1c0,0,0.1,0,0.1,0
		c0.1,0,0.2,0,0.3,0s0.3,0,0.4,0c0.1,0,0.2,0,0.3,0c0.3,0.1,0.6,0.2,0.8,0.4c0.2,0.2,0.3,0.5,0.3,0.8c0,0.4-0.1,0.6-0.3,0.9
		S72,60.5,71.6,60.6z M70.9,56.4c0.2,0,0.4,0,0.4,0c0.1,0,0.3-0.1,0.4-0.3c0.1-0.1,0.1-0.3,0.1-0.5c0-0.2,0-0.4-0.1-0.5
		s-0.2-0.2-0.3-0.2c-0.1,0-0.1,0-0.2,0c-0.1,0-0.2,0-0.2,0c-0.1,0-0.2,0-0.2,0c-0.1,0-0.1,0-0.2,0c-0.2,0-0.3,0.1-0.4,0.2
		c-0.1,0.1-0.1,0.3-0.1,0.5c0,0.2,0,0.4,0.1,0.5c0.1,0.1,0.2,0.2,0.3,0.2c0.1,0,0.1,0,0.2,0C70.8,56.4,70.8,56.4,70.9,56.4z
		 M70.8,59.7c0.1,0,0.2,0,0.3,0s0.2,0,0.2,0c0.1,0,0.2-0.1,0.2-0.1s0.1-0.2,0.1-0.2c0-0.2-0.1-0.4-0.3-0.4c-0.1,0-0.1,0-0.2,0
		c-0.1,0-0.2,0-0.3,0c-0.1,0-0.2,0-0.2,0c-0.1,0-0.2,0-0.2,0c-0.2,0-0.3,0.2-0.3,0.4c0,0.1,0,0.2,0.1,0.2c0,0.1,0.1,0.1,0.2,0.1
		c0.1,0,0.1,0,0.2,0S70.7,59.7,70.8,59.7z"/>
	<path d="M76,53.7c0.5,0,0.9,0.1,1.2,0.4s0.5,0.6,0.6,1c0,0.1,0.1,0.3,0.1,0.4c0,0.1,0,0.3,0,0.5c0,0.1,0,0.2,0,0.4
		c0,0.1,0,0.3,0,0.4h-2.7c0,0.1,0,0.2,0,0.3c0,0.2,0.1,0.4,0.3,0.5s0.3,0.2,0.6,0.2c0.2,0,0.4,0,0.5-0.1c0.2-0.1,0.3-0.2,0.5-0.5
		l0.8,0.8c-0.2,0.3-0.5,0.6-0.8,0.7c-0.3,0.1-0.7,0.2-1,0.2c-0.5,0-1-0.1-1.3-0.4c-0.3-0.3-0.5-0.6-0.6-1c0-0.2-0.1-0.3-0.1-0.5
		c0-0.2,0-0.4,0-0.7s0-0.5,0-0.7c0-0.2,0-0.3,0.1-0.5c0.1-0.4,0.3-0.8,0.6-1S75.5,53.7,76,53.7z M76,54.8c-0.2,0-0.4,0.1-0.5,0.2
		c-0.1,0.1-0.2,0.3-0.2,0.5c0,0.1,0,0.2,0,0.4h1.5c0-0.1,0-0.2,0-0.2c0-0.1,0-0.1,0-0.1c0-0.2-0.1-0.4-0.2-0.5
		C76.4,54.8,76.2,54.8,76,54.8z"/>
	<path d="M83.2,58.6c-0.1,0.1-0.2,0.1-0.4,0.2c-0.1,0-0.3,0.1-0.5,0.1c-0.2,0-0.3,0-0.4,0c-0.1,0-0.2,0-0.3-0.1
		c-0.3-0.1-0.6-0.3-0.7-0.5c-0.2-0.2-0.3-0.6-0.3-0.9c0-0.4,0.1-0.7,0.3-0.9c0.2-0.2,0.4-0.4,0.7-0.4c0.1,0,0.2-0.1,0.3-0.1
		c0.1,0,0.3,0,0.4,0c0.3,0,0.5,0,0.7,0.1v-0.6c0-0.2-0.1-0.4-0.2-0.5c-0.1-0.1-0.3-0.2-0.5-0.2c-0.2,0-0.3,0-0.5,0.1
		c-0.1,0.1-0.2,0.3-0.3,0.5l-1-0.6c0.1-0.2,0.2-0.3,0.3-0.5c0.1-0.1,0.2-0.2,0.4-0.3c0.1-0.1,0.3-0.2,0.5-0.2c0.2,0,0.4-0.1,0.6-0.1
		c0.3,0,0.5,0,0.8,0.1c0.2,0.1,0.4,0.2,0.6,0.4s0.3,0.3,0.4,0.5c0.1,0.2,0.1,0.4,0.1,0.6v3.4h-1l0-0.4
		C83.4,58.5,83.3,58.5,83.2,58.6C83.3,58.5,83.3,58.6,83.2,58.6z M82.6,57.8c0.1,0,0.2,0,0.2,0s0.1,0,0.2,0c0.1,0,0.2-0.1,0.2-0.2
		c0.1-0.1,0.1-0.2,0.1-0.3c0-0.1,0-0.2-0.1-0.3s-0.1-0.1-0.2-0.2c-0.1,0-0.1,0-0.2,0s-0.2,0-0.2,0c-0.1,0-0.1,0-0.2,0
		c-0.1,0-0.1,0-0.2,0c-0.2,0.1-0.3,0.2-0.3,0.5c0,0.1,0,0.2,0.1,0.3s0.1,0.1,0.2,0.2c0.1,0,0.1,0,0.2,0S82.5,57.8,82.6,57.8z"/>
	<path d="M86.8,58.8h-1.2v-5h1l0.1,0.5c0.1-0.2,0.3-0.3,0.5-0.4c0.2-0.1,0.4-0.1,0.6-0.1c0.5,0,0.9,0.2,1.2,0.5
		c0.3,0.3,0.4,0.7,0.4,1.2v3.4h-1.2v-3.2c0-0.2-0.1-0.4-0.2-0.5c-0.1-0.1-0.3-0.2-0.5-0.2c-0.2,0-0.4,0.1-0.5,0.2
		c-0.1,0.1-0.2,0.3-0.2,0.5V58.8z"/>
	<path d="M93.5,58.4c-0.1,0.1-0.3,0.3-0.5,0.4s-0.4,0.1-0.7,0.1c-0.5,0-0.8-0.1-1.1-0.4s-0.5-0.6-0.6-1.1c0-0.2-0.1-0.3-0.1-0.5
		c0-0.2,0-0.4,0-0.7s0-0.5,0-0.7c0-0.2,0-0.3,0.1-0.5c0-0.2,0.1-0.4,0.2-0.6c0.1-0.2,0.2-0.3,0.4-0.4c0.2-0.1,0.3-0.2,0.5-0.3
		c0.2-0.1,0.4-0.1,0.6-0.1c0.2,0,0.4,0,0.6,0.1s0.3,0.1,0.4,0.2v-2.1h1.2v6.9h-1L93.5,58.4z M92.5,57.8c0.2,0,0.4-0.1,0.5-0.2
		c0.1-0.1,0.2-0.3,0.3-0.5c0-0.1,0-0.2,0-0.4c0-0.1,0-0.3,0-0.4s0-0.3,0-0.4c0-0.1,0-0.3,0-0.4c0-0.2-0.1-0.4-0.3-0.5
		c-0.1-0.1-0.3-0.2-0.5-0.2c-0.2,0-0.4,0.1-0.5,0.2c-0.1,0.1-0.2,0.3-0.3,0.5c0,0.1,0,0.2,0,0.4c0,0.1,0,0.3,0,0.4s0,0.3,0,0.4
		c0,0.1,0,0.3,0,0.4c0,0.2,0.1,0.4,0.3,0.5C92.1,57.7,92.2,57.8,92.5,57.8z"/>
	<path d="M97.5,58.8v-1.2h1.2v-4.2h-1.2v-1.2h3.6v1.2H100v4.2h1.2v1.2H97.5z"/>
	<path d="M103.4,58.8h-1.2v-5h1l0.1,0.5c0.1-0.2,0.3-0.3,0.5-0.4c0.2-0.1,0.4-0.1,0.6-0.1c0.5,0,0.9,0.2,1.2,0.5
		c0.3,0.3,0.4,0.7,0.4,1.2v3.4h-1.2v-3.2c0-0.2-0.1-0.4-0.2-0.5c-0.1-0.1-0.3-0.2-0.5-0.2c-0.2,0-0.4,0.1-0.5,0.2
		c-0.1,0.1-0.2,0.3-0.2,0.5V58.8z"/>
	<path d="M108.6,54.9v3.9h-1.2v-3.9h-0.6v-1.1h0.6v-0.4c0-0.5,0.1-0.9,0.4-1.2c0.3-0.3,0.6-0.4,1.1-0.4c0.3,0,0.5,0,0.6,0.1
		c0.2,0,0.3,0.1,0.5,0.2l-0.4,1c-0.1-0.1-0.3-0.1-0.5-0.1c-0.1,0-0.2,0-0.3,0.1c-0.1,0.1-0.1,0.2-0.1,0.4v0.4h1v1.1H108.6z"/>
	<path d="M112.2,58.9c-0.5,0-0.9-0.1-1.3-0.4s-0.6-0.6-0.7-1c0-0.2-0.1-0.3-0.1-0.5c0-0.2,0-0.4,0-0.7s0-0.5,0-0.7
		c0-0.2,0-0.3,0.1-0.5c0.1-0.4,0.3-0.8,0.7-1s0.8-0.4,1.3-0.4c0.5,0,0.9,0.1,1.3,0.4s0.6,0.6,0.7,1c0,0.2,0.1,0.3,0.1,0.5
		c0,0.2,0,0.4,0,0.7s0,0.5,0,0.7c0,0.2,0,0.3-0.1,0.5c-0.1,0.2-0.1,0.4-0.3,0.6c-0.1,0.2-0.3,0.3-0.4,0.5c-0.2,0.1-0.4,0.2-0.6,0.3
		C112.7,58.8,112.4,58.9,112.2,58.9z M112.2,57.8c0.2,0,0.4-0.1,0.5-0.2c0.1-0.1,0.2-0.3,0.2-0.4c0-0.2,0.1-0.3,0.1-0.5
		c0-0.1,0-0.3,0-0.4c0-0.1,0-0.3,0-0.5c0-0.2,0-0.3-0.1-0.5c0-0.2-0.1-0.3-0.2-0.4c-0.1-0.1-0.3-0.2-0.5-0.2c-0.2,0-0.4,0.1-0.5,0.2
		c-0.1,0.1-0.2,0.3-0.2,0.4c0,0.1,0,0.3,0,0.4s0,0.3,0,0.5c0,0.2,0,0.3,0,0.4c0,0.1,0,0.3,0,0.4c0,0.2,0.1,0.3,0.2,0.5
		C111.8,57.7,112,57.8,112.2,57.8z"/>
	<path d="M116.5,58.8h-1.2v-5h1l0.1,0.5c0.1-0.2,0.3-0.4,0.5-0.5c0.2-0.1,0.4-0.1,0.6-0.1c0,0,0.1,0,0.2,0c0.1,0,0.2,0,0.3,0v1.2
		c-0.2,0-0.3-0.1-0.4-0.1s-0.2,0-0.3,0c-0.2,0-0.4,0.1-0.5,0.2c-0.1,0.1-0.2,0.3-0.2,0.6V58.8z"/>
	<path d="M119.9,58.8h-1.2v-5h1l0,0.4c0.1-0.2,0.3-0.3,0.5-0.4c0.2-0.1,0.4-0.1,0.6-0.1c0.2,0,0.4,0,0.6,0.1
		c0.2,0.1,0.3,0.2,0.5,0.4c0.2-0.2,0.4-0.3,0.6-0.4c0.2-0.1,0.4-0.1,0.6-0.1c0.3,0,0.5,0,0.7,0.1s0.4,0.2,0.5,0.3
		c0.1,0.1,0.2,0.3,0.3,0.5c0.1,0.2,0.1,0.4,0.1,0.6v3.5h-1.2v-3.4c0-0.2-0.1-0.3-0.2-0.4c-0.1-0.1-0.3-0.2-0.4-0.2
		c-0.2,0-0.3,0.1-0.4,0.2c-0.1,0.1-0.2,0.2-0.2,0.4v3.4H121v-3.4c0-0.2-0.1-0.3-0.2-0.4c-0.1-0.1-0.3-0.2-0.4-0.2
		c-0.2,0-0.3,0.1-0.4,0.2c-0.1,0.1-0.2,0.2-0.2,0.4V58.8z"/>
	<path d="M128.1,58.6c-0.1,0.1-0.2,0.1-0.4,0.2c-0.1,0-0.3,0.1-0.5,0.1c-0.2,0-0.3,0-0.4,0c-0.1,0-0.2,0-0.3-0.1
		c-0.3-0.1-0.6-0.3-0.7-0.5c-0.2-0.2-0.3-0.6-0.3-0.9c0-0.4,0.1-0.7,0.3-0.9c0.2-0.2,0.4-0.4,0.7-0.4c0.1,0,0.2-0.1,0.3-0.1
		c0.1,0,0.3,0,0.4,0c0.3,0,0.5,0,0.7,0.1v-0.6c0-0.2-0.1-0.4-0.2-0.5c-0.1-0.1-0.3-0.2-0.5-0.2c-0.2,0-0.3,0-0.5,0.1
		c-0.1,0.1-0.2,0.3-0.3,0.5l-1-0.6c0.1-0.2,0.2-0.3,0.3-0.5c0.1-0.1,0.2-0.2,0.4-0.3c0.1-0.1,0.3-0.2,0.5-0.2c0.2,0,0.4-0.1,0.6-0.1
		c0.3,0,0.5,0,0.8,0.1c0.2,0.1,0.4,0.2,0.6,0.4s0.3,0.3,0.4,0.5c0.1,0.2,0.1,0.4,0.1,0.6v3.4h-1l0-0.4
		C128.2,58.5,128.2,58.5,128.1,58.6C128.2,58.5,128.1,58.6,128.1,58.6z M127.4,57.8c0.1,0,0.2,0,0.2,0s0.1,0,0.2,0
		c0.1,0,0.2-0.1,0.2-0.2c0.1-0.1,0.1-0.2,0.1-0.3c0-0.1,0-0.2-0.1-0.3s-0.1-0.1-0.2-0.2c-0.1,0-0.1,0-0.2,0s-0.2,0-0.2,0
		c-0.1,0-0.1,0-0.2,0c-0.1,0-0.1,0-0.2,0c-0.2,0.1-0.3,0.2-0.3,0.5c0,0.1,0,0.2,0.1,0.3s0.1,0.1,0.2,0.2c0.1,0,0.1,0,0.2,0
		S127.4,57.8,127.4,57.8z"/>
	<path d="M132.7,58.8c-0.2,0.1-0.4,0.1-0.6,0.1c-0.4,0-0.8-0.1-1-0.4s-0.4-0.7-0.4-1.2v-2.4h-0.6v-1.1h0.6v-1.4h1.2v1.4h1.2v1.1
		h-1.2v2.4c0,0.2,0,0.3,0.1,0.4c0.1,0.1,0.2,0.1,0.3,0.1c0.2,0,0.4-0.1,0.5-0.2l0.4,1C133.1,58.7,132.9,58.7,132.7,58.8z"/>
	<path d="M134.5,53.3c-0.2,0-0.4-0.1-0.5-0.2c-0.1-0.2-0.2-0.3-0.2-0.5c0-0.2,0.1-0.4,0.2-0.5c0.1-0.1,0.3-0.2,0.5-0.2
		c0.2,0,0.4,0.1,0.5,0.2c0.1,0.1,0.2,0.3,0.2,0.5c0,0.2-0.1,0.4-0.2,0.5C134.9,53.2,134.7,53.3,134.5,53.3z M133.9,58.8v-5h1.2v5
		H133.9z"/>
	<path d="M138.1,58.9c-0.5,0-0.9-0.1-1.3-0.4s-0.6-0.6-0.7-1c0-0.2-0.1-0.3-0.1-0.5c0-0.2,0-0.4,0-0.7s0-0.5,0-0.7
		c0-0.2,0-0.3,0.1-0.5c0.1-0.4,0.3-0.8,0.7-1s0.8-0.4,1.3-0.4c0.5,0,0.9,0.1,1.3,0.4s0.6,0.6,0.7,1c0,0.2,0.1,0.3,0.1,0.5
		c0,0.2,0,0.4,0,0.7s0,0.5,0,0.7c0,0.2,0,0.3-0.1,0.5c-0.1,0.2-0.1,0.4-0.3,0.6c-0.1,0.2-0.3,0.3-0.4,0.5c-0.2,0.1-0.4,0.2-0.6,0.3
		C138.6,58.8,138.4,58.9,138.1,58.9z M138.2,57.8c0.2,0,0.4-0.1,0.5-0.2c0.1-0.1,0.2-0.3,0.2-0.4c0-0.2,0.1-0.3,0.1-0.5
		c0-0.1,0-0.3,0-0.4c0-0.1,0-0.3,0-0.5c0-0.2,0-0.3-0.1-0.5c0-0.2-0.1-0.3-0.2-0.4c-0.1-0.1-0.3-0.2-0.5-0.2c-0.2,0-0.4,0.1-0.5,0.2
		c-0.1,0.1-0.2,0.3-0.2,0.4c0,0.1,0,0.3,0,0.4s0,0.3,0,0.5c0,0.2,0,0.3,0,0.4c0,0.1,0,0.3,0,0.4c0,0.2,0.1,0.3,0.2,0.5
		C137.8,57.7,138,57.8,138.2,57.8z"/>
	<path d="M142.4,58.8h-1.2v-5h1l0.1,0.5c0.1-0.2,0.3-0.3,0.5-0.4c0.2-0.1,0.4-0.1,0.6-0.1c0.5,0,0.9,0.2,1.2,0.5
		c0.3,0.3,0.4,0.7,0.4,1.2v3.4h-1.2v-3.2c0-0.2-0.1-0.4-0.2-0.5c-0.1-0.1-0.3-0.2-0.5-0.2c-0.2,0-0.4,0.1-0.5,0.2
		c-0.1,0.1-0.2,0.3-0.2,0.5V58.8z"/>
	<path d="M148.3,52.3h1.8c0.8,0,1.4,0.2,1.8,0.6s0.6,0.9,0.6,1.6c0,0.7-0.2,1.2-0.7,1.6c-0.4,0.4-1,0.6-1.8,0.6h-0.5v2.1h-1.3V52.3z
		 M150.2,55.5c0.4,0,0.7-0.1,0.9-0.3c0.2-0.2,0.3-0.4,0.3-0.8c0-0.3-0.1-0.6-0.3-0.8c-0.2-0.2-0.5-0.3-0.9-0.3h-0.5v2.1H150.2z"/>
	<path d="M154.7,58.8h-1.2v-5h1l0.1,0.5c0.1-0.2,0.3-0.4,0.5-0.5c0.2-0.1,0.4-0.1,0.6-0.1c0,0,0.1,0,0.2,0c0.1,0,0.2,0,0.3,0v1.2
		c-0.2,0-0.3-0.1-0.4-0.1s-0.2,0-0.3,0c-0.2,0-0.4,0.1-0.5,0.2c-0.1,0.1-0.2,0.3-0.2,0.6V58.8z"/>
	<path d="M158.5,58.9c-0.5,0-0.9-0.1-1.3-0.4s-0.6-0.6-0.7-1c0-0.2-0.1-0.3-0.1-0.5c0-0.2,0-0.4,0-0.7s0-0.5,0-0.7
		c0-0.2,0-0.3,0.1-0.5c0.1-0.4,0.3-0.8,0.7-1s0.8-0.4,1.3-0.4c0.5,0,0.9,0.1,1.3,0.4s0.6,0.6,0.7,1c0,0.2,0.1,0.3,0.1,0.5
		c0,0.2,0,0.4,0,0.7s0,0.5,0,0.7c0,0.2,0,0.3-0.1,0.5c-0.1,0.2-0.1,0.4-0.3,0.6c-0.1,0.2-0.3,0.3-0.4,0.5c-0.2,0.1-0.4,0.2-0.6,0.3
		C159,58.8,158.8,58.9,158.5,58.9z M158.6,57.8c0.2,0,0.4-0.1,0.5-0.2c0.1-0.1,0.2-0.3,0.2-0.4c0-0.2,0.1-0.3,0.1-0.5
		c0-0.1,0-0.3,0-0.4c0-0.1,0-0.3,0-0.5c0-0.2,0-0.3-0.1-0.5c0-0.2-0.1-0.3-0.2-0.4c-0.1-0.1-0.3-0.2-0.5-0.2c-0.2,0-0.4,0.1-0.5,0.2
		c-0.1,0.1-0.2,0.3-0.2,0.4c0,0.1,0,0.3,0,0.4s0,0.3,0,0.5c0,0.2,0,0.3,0,0.4c0,0.1,0,0.3,0,0.4c0,0.2,0.1,0.3,0.2,0.5
		C158.2,57.7,158.4,57.8,158.6,57.8z"/>
	<path d="M163.5,58.9c-0.5,0-1-0.1-1.3-0.4s-0.5-0.6-0.6-1c0-0.2-0.1-0.3-0.1-0.5c0-0.2,0-0.4,0-0.7s0-0.5,0-0.7s0-0.3,0.1-0.5
		c0.1-0.4,0.3-0.8,0.6-1s0.7-0.4,1.3-0.4c0.5,0,0.9,0.1,1.2,0.3s0.5,0.6,0.6,1c0,0.2,0.1,0.4,0.1,0.6v0.1h-1.2v-0.1
		c0-0.1,0-0.1,0-0.2c0,0,0-0.1,0-0.2c0-0.4-0.3-0.7-0.7-0.7c-0.2,0-0.4,0.1-0.5,0.2s-0.2,0.3-0.2,0.5c0,0.1,0,0.2,0,0.4
		c0,0.2,0,0.3,0,0.5c0,0.2,0,0.3,0,0.4c0,0.1,0,0.2,0,0.3c0,0.2,0.1,0.4,0.2,0.5c0.1,0.1,0.3,0.2,0.5,0.2c0.2,0,0.4-0.1,0.6-0.2
		c0.2-0.1,0.3-0.3,0.4-0.5l0.8,0.8c-0.2,0.3-0.4,0.6-0.8,0.7S163.8,58.9,163.5,58.9z"/>
	<path d="M168,53.7c0.5,0,0.9,0.1,1.2,0.4s0.5,0.6,0.6,1c0,0.1,0.1,0.3,0.1,0.4c0,0.1,0,0.3,0,0.5c0,0.1,0,0.2,0,0.4
		c0,0.1,0,0.3,0,0.4h-2.7c0,0.1,0,0.2,0,0.3c0,0.2,0.1,0.4,0.3,0.5s0.3,0.2,0.6,0.2c0.2,0,0.4,0,0.5-0.1c0.2-0.1,0.3-0.2,0.5-0.5
		l0.8,0.8c-0.2,0.3-0.5,0.6-0.8,0.7c-0.3,0.1-0.7,0.2-1,0.2c-0.5,0-1-0.1-1.3-0.4c-0.3-0.3-0.5-0.6-0.6-1c0-0.2-0.1-0.3-0.1-0.5
		c0-0.2,0-0.4,0-0.7s0-0.5,0-0.7c0-0.2,0-0.3,0.1-0.5c0.1-0.4,0.3-0.8,0.6-1S167.5,53.7,168,53.7z M168,54.8c-0.2,0-0.4,0.1-0.5,0.2
		c-0.1,0.1-0.2,0.3-0.2,0.5c0,0.1,0,0.2,0,0.4h1.5c0-0.1,0-0.2,0-0.2c0-0.1,0-0.1,0-0.1c0-0.2-0.1-0.4-0.2-0.5
		C168.4,54.8,168.2,54.8,168,54.8z"/>
	<path d="M173,55.9c0.2,0.1,0.3,0.1,0.5,0.2c0.2,0.1,0.3,0.2,0.4,0.3c0.1,0.1,0.2,0.2,0.3,0.4s0.1,0.4,0.1,0.6c0,0.2,0,0.4-0.1,0.6
		c-0.1,0.2-0.2,0.3-0.4,0.5c-0.2,0.1-0.3,0.2-0.6,0.3c-0.2,0.1-0.5,0.1-0.7,0.1c-0.5,0-0.9-0.1-1.2-0.3s-0.6-0.4-0.7-0.8l0.9-0.7
		c0.1,0.2,0.3,0.4,0.4,0.5s0.4,0.2,0.6,0.2c0.1,0,0.2,0,0.3-0.1c0.1-0.1,0.1-0.1,0.1-0.3c0-0.1,0-0.2-0.1-0.3
		c-0.1-0.1-0.2-0.1-0.5-0.2l-0.4-0.1c-0.5-0.2-0.8-0.4-1-0.6c-0.2-0.2-0.3-0.6-0.3-0.9c0-0.2,0-0.4,0.1-0.6c0.1-0.2,0.2-0.3,0.4-0.5
		s0.3-0.2,0.5-0.3s0.4-0.1,0.7-0.1c0.6,0,1,0.1,1.3,0.4c0.3,0.3,0.4,0.7,0.4,1.1c0,0,0,0.1,0,0.1s0,0.1,0,0.1H173c0,0,0-0.1,0-0.1
		c0-0.2,0-0.3-0.1-0.4c-0.1-0.1-0.2-0.1-0.4-0.1c-0.2,0-0.3,0-0.4,0.1c-0.1,0.1-0.1,0.2-0.1,0.3c0,0.1,0.1,0.2,0.2,0.3
		c0.1,0.1,0.3,0.2,0.5,0.2L173,55.9z"/>
	<path d="M177.2,55.9c0.2,0.1,0.3,0.1,0.5,0.2c0.2,0.1,0.3,0.2,0.4,0.3c0.1,0.1,0.2,0.2,0.3,0.4s0.1,0.4,0.1,0.6
		c0,0.2,0,0.4-0.1,0.6c-0.1,0.2-0.2,0.3-0.4,0.5c-0.2,0.1-0.3,0.2-0.6,0.3c-0.2,0.1-0.5,0.1-0.7,0.1c-0.5,0-0.9-0.1-1.2-0.3
		s-0.6-0.4-0.7-0.8l0.9-0.7c0.1,0.2,0.3,0.4,0.4,0.5s0.4,0.2,0.6,0.2c0.1,0,0.2,0,0.3-0.1c0.1-0.1,0.1-0.1,0.1-0.3
		c0-0.1,0-0.2-0.1-0.3c-0.1-0.1-0.2-0.1-0.5-0.2l-0.4-0.1c-0.5-0.2-0.8-0.4-1-0.6c-0.2-0.2-0.3-0.6-0.3-0.9c0-0.2,0-0.4,0.1-0.6
		c0.1-0.2,0.2-0.3,0.4-0.5s0.3-0.2,0.5-0.3s0.4-0.1,0.7-0.1c0.6,0,1,0.1,1.3,0.4c0.3,0.3,0.4,0.7,0.4,1.1c0,0,0,0.1,0,0.1
		s0,0.1,0,0.1h-1.2c0,0,0-0.1,0-0.1c0-0.2,0-0.3-0.1-0.4c-0.1-0.1-0.2-0.1-0.4-0.1c-0.2,0-0.3,0-0.4,0.1c-0.1,0.1-0.1,0.2-0.1,0.3
		c0,0.1,0.1,0.2,0.2,0.3c0.1,0.1,0.3,0.2,0.5,0.2L177.2,55.9z"/>
	<path d="M180.1,53.3c-0.2,0-0.4-0.1-0.5-0.2c-0.1-0.2-0.2-0.3-0.2-0.5c0-0.2,0.1-0.4,0.2-0.5c0.1-0.1,0.3-0.2,0.5-0.2
		c0.2,0,0.4,0.1,0.5,0.2c0.1,0.1,0.2,0.3,0.2,0.5c0,0.2-0.1,0.4-0.2,0.5C180.5,53.2,180.3,53.3,180.1,53.3z M179.5,58.8v-5h1.2v5
		H179.5z"/>
	<path d="M183.1,58.8h-1.2v-5h1l0.1,0.5c0.1-0.2,0.3-0.3,0.5-0.4c0.2-0.1,0.4-0.1,0.6-0.1c0.5,0,0.9,0.2,1.2,0.5
		c0.3,0.3,0.4,0.7,0.4,1.2v3.4h-1.2v-3.2c0-0.2-0.1-0.4-0.2-0.5c-0.1-0.1-0.3-0.2-0.5-0.2c-0.2,0-0.4,0.1-0.5,0.2
		c-0.1,0.1-0.2,0.3-0.2,0.5V58.8z"/>
	<path d="M189.5,60.6c-0.2,0-0.3,0.1-0.4,0.1c-0.1,0-0.2,0-0.4,0c-0.1,0-0.2,0-0.2,0s-0.1,0-0.2,0c-0.1,0-0.1,0-0.2,0
		c-0.1,0-0.1,0-0.2,0c-0.3-0.1-0.6-0.2-0.8-0.5s-0.3-0.5-0.3-0.9c0-0.2,0-0.4,0.1-0.6c0.1-0.2,0.2-0.3,0.3-0.4
		c-0.1-0.1-0.1-0.2-0.2-0.3c0-0.1-0.1-0.2-0.1-0.4c0-0.2,0-0.3,0.1-0.4c0.1-0.1,0.1-0.2,0.2-0.3c-0.2-0.2-0.4-0.3-0.5-0.6
		c-0.1-0.2-0.2-0.5-0.2-0.9c0-0.2,0-0.5,0.1-0.7c0.1-0.2,0.2-0.4,0.3-0.5c0.1-0.2,0.3-0.3,0.4-0.4c0.2-0.1,0.3-0.2,0.5-0.2
		c0.1,0,0.1,0,0.2-0.1c0.1,0,0.1,0,0.2,0c0.1,0,0.1,0,0.2,0c0.1,0,0.2,0,0.3,0c0.2,0,0.4,0,0.5,0c0.1,0,0.2,0,0.4,0.1h1.7v1.2h-0.6
		c0.1,0.2,0.1,0.4,0.1,0.6c0,0.5-0.1,0.9-0.4,1.2c-0.2,0.3-0.5,0.5-0.9,0.6c-0.1,0-0.2,0.1-0.3,0.1c-0.1,0-0.3,0-0.5,0
		c-0.2,0-0.3,0-0.3,0s-0.1,0-0.1,0c-0.1,0-0.1,0-0.1,0.1c0,0-0.1,0.1-0.1,0.2s0,0.1,0,0.2c0,0,0.1,0.1,0.2,0.1c0,0,0.1,0,0.1,0
		c0.1,0,0.2,0,0.3,0s0.3,0,0.4,0c0.1,0,0.2,0,0.3,0c0.3,0.1,0.6,0.2,0.8,0.4c0.2,0.2,0.3,0.5,0.3,0.8c0,0.4-0.1,0.6-0.3,0.9
		S189.8,60.5,189.5,60.6z M188.8,56.4c0.2,0,0.4,0,0.4,0c0.1,0,0.3-0.1,0.4-0.3c0.1-0.1,0.1-0.3,0.1-0.5c0-0.2,0-0.4-0.1-0.5
		s-0.2-0.2-0.3-0.2c-0.1,0-0.1,0-0.2,0c-0.1,0-0.2,0-0.2,0c-0.1,0-0.2,0-0.2,0c-0.1,0-0.1,0-0.2,0c-0.2,0-0.3,0.1-0.4,0.2
		c-0.1,0.1-0.1,0.3-0.1,0.5c0,0.2,0,0.4,0.1,0.5c0.1,0.1,0.2,0.2,0.3,0.2c0.1,0,0.1,0,0.2,0C188.6,56.4,188.7,56.4,188.8,56.4z
		 M188.7,59.7c0.1,0,0.2,0,0.3,0s0.2,0,0.2,0c0.1,0,0.2-0.1,0.2-0.1s0.1-0.2,0.1-0.2c0-0.2-0.1-0.4-0.3-0.4c-0.1,0-0.1,0-0.2,0
		c-0.1,0-0.2,0-0.3,0c-0.1,0-0.2,0-0.2,0c-0.1,0-0.2,0-0.2,0c-0.2,0-0.3,0.2-0.3,0.4c0,0.1,0,0.2,0.1,0.2c0,0.1,0.1,0.1,0.2,0.1
		c0.1,0,0.1,0,0.2,0S188.6,59.7,188.7,59.7z"/>
</g>
<g>
	<path class="st0" d="M52.8,74.5v-5.2h1.6c0.6,0,1,0.2,1.3,0.5c0.3,0.3,0.5,0.7,0.5,1.3c0,0.3-0.1,0.6-0.2,0.9
		c-0.2,0.3-0.4,0.5-0.7,0.6l0.3,0.4c0.1,0.1,0.2,0.2,0.3,0.3c0.1,0.1,0.1,0.2,0.2,0.3s0.1,0.2,0.1,0.3c0,0.1,0,0.2,0,0.3v0.4h-1
		v-0.3c0-0.1,0-0.2,0-0.3s0-0.1-0.1-0.2s-0.1-0.1-0.2-0.2c-0.1-0.1-0.1-0.2-0.2-0.3l-0.4-0.5h-0.4v1.9H52.8z M54.4,71.8
		c0.3,0,0.5-0.1,0.6-0.2c0.1-0.1,0.2-0.3,0.2-0.6c0-0.2-0.1-0.4-0.2-0.6c-0.1-0.1-0.3-0.2-0.6-0.2h-0.6v1.5H54.4z"/>
	<path class="st0" d="M58.4,70.4c0.4,0,0.7,0.1,1,0.3c0.3,0.2,0.4,0.5,0.5,0.8c0,0.1,0,0.2,0,0.3c0,0.1,0,0.2,0,0.4
		c0,0.1,0,0.2,0,0.3c0,0.1,0,0.2,0,0.3h-2.2c0,0.1,0,0.2,0,0.3c0,0.2,0.1,0.3,0.2,0.4c0.1,0.1,0.3,0.1,0.5,0.1c0.2,0,0.3,0,0.4-0.1
		s0.2-0.2,0.4-0.4l0.6,0.6c-0.2,0.3-0.4,0.5-0.6,0.6c-0.2,0.1-0.5,0.2-0.8,0.2c-0.4,0-0.8-0.1-1-0.3c-0.3-0.2-0.4-0.5-0.5-0.8
		c0-0.1-0.1-0.3-0.1-0.4s0-0.3,0-0.5s0-0.4,0-0.5c0-0.1,0-0.3,0.1-0.4c0.1-0.3,0.3-0.6,0.5-0.8S58,70.4,58.4,70.4z M58.4,71.3
		c-0.2,0-0.3,0-0.4,0.1c-0.1,0.1-0.1,0.2-0.2,0.4c0,0.1,0,0.2,0,0.3H59c0-0.1,0-0.1,0-0.2c0,0,0-0.1,0-0.1c0-0.2-0.1-0.3-0.2-0.4
		C58.7,71.4,58.6,71.3,58.4,71.3z"/>
	<path class="st0" d="M62.4,72.2c0.1,0.1,0.3,0.1,0.4,0.2c0.1,0.1,0.2,0.1,0.3,0.2c0.1,0.1,0.2,0.2,0.2,0.3s0.1,0.3,0.1,0.5
		c0,0.2,0,0.3-0.1,0.5c-0.1,0.1-0.2,0.3-0.3,0.4c-0.1,0.1-0.3,0.2-0.4,0.2s-0.4,0.1-0.6,0.1c-0.4,0-0.7-0.1-1-0.2
		c-0.3-0.2-0.5-0.4-0.6-0.6l0.7-0.6c0.1,0.2,0.2,0.3,0.3,0.4c0.1,0.1,0.3,0.1,0.5,0.1c0.1,0,0.2,0,0.3-0.1s0.1-0.1,0.1-0.2
		c0-0.1,0-0.2-0.1-0.2c-0.1-0.1-0.2-0.1-0.4-0.2l-0.3-0.1c-0.4-0.1-0.6-0.3-0.8-0.5c-0.1-0.2-0.2-0.4-0.2-0.8c0-0.2,0-0.3,0.1-0.5
		c0.1-0.1,0.2-0.3,0.3-0.4c0.1-0.1,0.3-0.2,0.4-0.3c0.2-0.1,0.4-0.1,0.6-0.1c0.5,0,0.8,0.1,1,0.3c0.2,0.2,0.3,0.5,0.3,0.9
		c0,0,0,0.1,0,0.1c0,0,0,0.1,0,0.1h-1c0,0,0-0.1,0-0.1c0-0.2,0-0.3-0.1-0.3c-0.1-0.1-0.2-0.1-0.3-0.1c-0.1,0-0.2,0-0.3,0.1
		c-0.1,0.1-0.1,0.2-0.1,0.2c0,0.1,0,0.2,0.1,0.3c0.1,0.1,0.2,0.1,0.4,0.2L62.4,72.2z"/>
	<path class="st0" d="M65.6,70.4c0.4,0,0.7,0.1,1,0.3c0.3,0.2,0.4,0.5,0.5,0.8c0,0.1,0,0.2,0,0.3c0,0.1,0,0.2,0,0.4
		c0,0.1,0,0.2,0,0.3c0,0.1,0,0.2,0,0.3H65c0,0.1,0,0.2,0,0.3c0,0.2,0.1,0.3,0.2,0.4c0.1,0.1,0.3,0.1,0.5,0.1c0.2,0,0.3,0,0.4-0.1
		s0.2-0.2,0.4-0.4l0.6,0.6c-0.2,0.3-0.4,0.5-0.6,0.6c-0.2,0.1-0.5,0.2-0.8,0.2c-0.4,0-0.8-0.1-1-0.3c-0.3-0.2-0.4-0.5-0.5-0.8
		c0-0.1-0.1-0.3-0.1-0.4s0-0.3,0-0.5s0-0.4,0-0.5c0-0.1,0-0.3,0.1-0.4c0.1-0.3,0.3-0.6,0.5-0.8S65.2,70.4,65.6,70.4z M65.6,71.3
		c-0.2,0-0.3,0-0.4,0.1c-0.1,0.1-0.1,0.2-0.2,0.4c0,0.1,0,0.2,0,0.3h1.2c0-0.1,0-0.1,0-0.2c0,0,0-0.1,0-0.1c0-0.2-0.1-0.3-0.2-0.4
		C65.9,71.4,65.8,71.3,65.6,71.3z"/>
	<path class="st0" d="M69.7,74.4c-0.1,0.1-0.2,0.1-0.3,0.1s-0.3,0.1-0.4,0.1c-0.1,0-0.2,0-0.3,0s-0.2,0-0.2-0.1
		c-0.3-0.1-0.5-0.2-0.6-0.4s-0.2-0.4-0.2-0.7c0-0.3,0.1-0.5,0.2-0.7s0.3-0.3,0.6-0.4c0.1,0,0.2,0,0.3-0.1c0.1,0,0.2,0,0.4,0
		c0.2,0,0.4,0,0.6,0.1v-0.5c0-0.2,0-0.3-0.1-0.4c-0.1-0.1-0.2-0.1-0.4-0.1c-0.1,0-0.3,0-0.4,0.1c-0.1,0.1-0.2,0.2-0.3,0.4l-0.8-0.5
		c0.1-0.1,0.2-0.3,0.2-0.4s0.2-0.2,0.3-0.3c0.1-0.1,0.2-0.1,0.4-0.2s0.3-0.1,0.5-0.1c0.2,0,0.4,0,0.6,0.1c0.2,0.1,0.3,0.2,0.5,0.3
		c0.1,0.1,0.2,0.3,0.3,0.4c0.1,0.2,0.1,0.3,0.1,0.5v2.7h-0.8l0-0.3C69.8,74.3,69.8,74.3,69.7,74.4C69.8,74.3,69.7,74.4,69.7,74.4z
		 M69.2,73.7c0.1,0,0.1,0,0.2,0c0.1,0,0.1,0,0.2,0c0.1,0,0.1-0.1,0.2-0.1c0-0.1,0.1-0.1,0.1-0.2c0-0.1,0-0.2-0.1-0.2
		c0-0.1-0.1-0.1-0.2-0.1c0,0-0.1,0-0.2,0c-0.1,0-0.1,0-0.2,0s-0.1,0-0.2,0c-0.1,0-0.1,0-0.2,0c-0.2,0-0.2,0.2-0.2,0.4
		c0,0.1,0,0.2,0.1,0.2c0,0.1,0.1,0.1,0.2,0.1c0,0,0.1,0,0.2,0C69.1,73.7,69.1,73.7,69.2,73.7z"/>
	<path class="st0" d="M72.6,74.5h-1v-4h0.8l0.1,0.4c0.1-0.2,0.2-0.3,0.4-0.4c0.1-0.1,0.3-0.1,0.5-0.1c0,0,0.1,0,0.1,0
		c0.1,0,0.1,0,0.2,0v1c-0.1,0-0.2,0-0.3,0c-0.1,0-0.2,0-0.2,0c-0.2,0-0.3,0-0.4,0.1c-0.1,0.1-0.2,0.2-0.2,0.5V74.5z"/>
	<path class="st0" d="M75.7,74.6c-0.4,0-0.8-0.1-1-0.3c-0.3-0.2-0.4-0.5-0.5-0.8c0-0.1-0.1-0.3-0.1-0.4s0-0.3,0-0.5s0-0.4,0-0.5
		s0-0.3,0.1-0.4c0.1-0.3,0.2-0.6,0.5-0.8c0.3-0.2,0.6-0.3,1-0.3c0.4,0,0.7,0.1,1,0.3c0.3,0.2,0.4,0.4,0.5,0.8c0,0.2,0,0.3,0,0.5v0.1
		h-1v-0.1c0-0.1,0-0.1,0-0.1c0,0,0-0.1,0-0.1c0-0.4-0.2-0.5-0.6-0.5c-0.2,0-0.3,0-0.4,0.1c-0.1,0.1-0.1,0.2-0.2,0.4
		c0,0.1,0,0.2,0,0.3c0,0.1,0,0.2,0,0.4c0,0.1,0,0.2,0,0.3c0,0.1,0,0.2,0,0.3c0,0.2,0.1,0.3,0.2,0.4c0.1,0.1,0.2,0.2,0.4,0.2
		s0.3-0.1,0.5-0.2c0.1-0.1,0.2-0.2,0.3-0.4l0.7,0.6c-0.1,0.3-0.4,0.5-0.6,0.6C76.2,74.5,76,74.6,75.7,74.6z"/>
	<path class="st0" d="M78.8,74.5h-1V69h1v1.8c0.1-0.1,0.2-0.2,0.3-0.2c0.1-0.1,0.3-0.1,0.5-0.1c0.4,0,0.7,0.1,1,0.4
		c0.2,0.3,0.4,0.6,0.4,1v2.7h-1v-2.6c0-0.2,0-0.3-0.1-0.4c-0.1-0.1-0.2-0.2-0.4-0.2c-0.2,0-0.3,0.1-0.4,0.2
		c-0.1,0.1-0.2,0.2-0.2,0.4V74.5z"/>
	<path class="st0" d="M82.4,74.6c-0.2,0-0.4-0.1-0.5-0.2c-0.1-0.1-0.2-0.3-0.2-0.5c0-0.1,0-0.2,0-0.2c0-0.1,0.1-0.2,0.1-0.2
		c0.1-0.1,0.1-0.1,0.2-0.1c0.1,0,0.2,0,0.3,0c0.1,0,0.2,0,0.3,0c0.1,0,0.2,0.1,0.2,0.1c0.1,0.1,0.1,0.1,0.1,0.2
		c0,0.1,0.1,0.2,0.1,0.3c0,0.1,0,0.2-0.1,0.3c0,0.1-0.1,0.1-0.1,0.2c-0.1,0.1-0.1,0.1-0.2,0.1C82.6,74.6,82.5,74.6,82.4,74.6z"/>
	<path class="st0" d="M85.3,74.5v-1h1v-3.3h-0.9v-0.9h2.9v0.9h-0.9v3.3h1v1H85.3z"/>
	<path class="st0" d="M89.9,74.5h-1v-4h0.8l0,0.4c0.1-0.1,0.2-0.3,0.4-0.3s0.3-0.1,0.5-0.1c0.4,0,0.7,0.1,1,0.4
		c0.2,0.3,0.4,0.6,0.4,1v2.7h-1v-2.6c0-0.2,0-0.3-0.1-0.4c-0.1-0.1-0.2-0.2-0.4-0.2c-0.2,0-0.3,0.1-0.4,0.2
		c-0.1,0.1-0.2,0.2-0.2,0.4V74.5z"/>
	<path class="st0" d="M94,74.5h-1v-4h0.8l0,0.4c0.1-0.1,0.2-0.3,0.4-0.3s0.3-0.1,0.5-0.1c0.4,0,0.7,0.1,1,0.4c0.2,0.3,0.4,0.6,0.4,1
		v2.7h-1v-2.6c0-0.2,0-0.3-0.1-0.4c-0.1-0.1-0.2-0.2-0.4-0.2c-0.2,0-0.3,0.1-0.4,0.2C94,71.6,94,71.8,94,71.9V74.5z"/>
	<path class="st0" d="M98.5,74.6c-0.4,0-0.7-0.1-1-0.3c-0.3-0.2-0.5-0.5-0.5-0.8c0-0.1-0.1-0.3-0.1-0.4s0-0.3,0-0.5s0-0.4,0-0.5
		c0-0.1,0-0.3,0.1-0.4c0.1-0.3,0.3-0.6,0.5-0.8c0.3-0.2,0.6-0.3,1-0.3c0.4,0,0.8,0.1,1,0.3c0.3,0.2,0.5,0.5,0.5,0.8
		c0,0.1,0.1,0.3,0.1,0.4c0,0.1,0,0.3,0,0.5s0,0.4,0,0.5c0,0.1,0,0.3-0.1,0.4c0,0.2-0.1,0.3-0.2,0.5c-0.1,0.1-0.2,0.3-0.3,0.4
		c-0.1,0.1-0.3,0.2-0.5,0.2C98.9,74.6,98.7,74.6,98.5,74.6z M98.5,73.7c0.2,0,0.3,0,0.4-0.1s0.2-0.2,0.2-0.3c0-0.1,0-0.2,0-0.4
		c0-0.1,0-0.2,0-0.4c0-0.1,0-0.2,0-0.4c0-0.1,0-0.2,0-0.4c0-0.1-0.1-0.2-0.2-0.3c-0.1-0.1-0.2-0.1-0.4-0.1c-0.2,0-0.3,0-0.4,0.1
		c-0.1,0.1-0.2,0.2-0.2,0.4c0,0.1,0,0.2,0,0.3c0,0.1,0,0.2,0,0.4c0,0.1,0,0.2,0,0.4c0,0.1,0,0.2,0,0.3c0,0.1,0.1,0.3,0.2,0.4
		C98.2,73.7,98.3,73.7,98.5,73.7z"/>
	<path class="st0" d="M101.9,74.5c-0.1-0.2-0.2-0.3-0.2-0.5c-0.1-0.2-0.2-0.4-0.2-0.6s-0.2-0.4-0.2-0.6c-0.1-0.2-0.1-0.3-0.2-0.5
		c-0.1-0.2-0.2-0.4-0.2-0.7c0-0.2-0.1-0.4-0.1-0.6v-0.6h1v0.6c0,0.1,0,0.3,0.1,0.5c0,0.2,0.1,0.4,0.1,0.6c0.1,0.2,0.1,0.4,0.2,0.7
		c0.1,0.3,0.2,0.5,0.2,0.9h0c0-0.2,0.1-0.3,0.1-0.5c0-0.1,0.1-0.3,0.1-0.4s0.1-0.2,0.1-0.4s0.1-0.2,0.1-0.3c0-0.1,0.1-0.2,0.1-0.3
		c0-0.1,0-0.2,0.1-0.3c0-0.1,0-0.2,0-0.3s0-0.2,0-0.2v-0.6h1v0.6c0,0.2,0,0.4-0.1,0.6c0,0.2-0.1,0.5-0.2,0.7
		c-0.1,0.1-0.1,0.3-0.2,0.5c-0.1,0.2-0.2,0.4-0.2,0.6c-0.1,0.2-0.2,0.4-0.3,0.6c-0.1,0.2-0.2,0.4-0.2,0.5H101.9z"/>
	<path class="st0" d="M106.5,74.4c-0.1,0.1-0.2,0.1-0.3,0.1s-0.3,0.1-0.4,0.1c-0.1,0-0.2,0-0.3,0s-0.2,0-0.2-0.1
		c-0.3-0.1-0.5-0.2-0.6-0.4s-0.2-0.4-0.2-0.7c0-0.3,0.1-0.5,0.2-0.7s0.3-0.3,0.6-0.4c0.1,0,0.2,0,0.3-0.1c0.1,0,0.2,0,0.4,0
		c0.2,0,0.4,0,0.6,0.1v-0.5c0-0.2,0-0.3-0.1-0.4c-0.1-0.1-0.2-0.1-0.4-0.1c-0.1,0-0.3,0-0.4,0.1c-0.1,0.1-0.2,0.2-0.3,0.4l-0.8-0.5
		c0.1-0.1,0.2-0.3,0.2-0.4s0.2-0.2,0.3-0.3c0.1-0.1,0.2-0.1,0.4-0.2s0.3-0.1,0.5-0.1c0.2,0,0.4,0,0.6,0.1c0.2,0.1,0.3,0.2,0.5,0.3
		c0.1,0.1,0.2,0.3,0.3,0.4c0.1,0.2,0.1,0.3,0.1,0.5v2.7h-0.8l0-0.3C106.6,74.3,106.6,74.3,106.5,74.4
		C106.6,74.3,106.6,74.4,106.5,74.4z M106,73.7c0.1,0,0.1,0,0.2,0c0.1,0,0.1,0,0.2,0c0.1,0,0.1-0.1,0.2-0.1c0-0.1,0.1-0.1,0.1-0.2
		c0-0.1,0-0.2-0.1-0.2c0-0.1-0.1-0.1-0.2-0.1c0,0-0.1,0-0.2,0c-0.1,0-0.1,0-0.2,0s-0.1,0-0.2,0c-0.1,0-0.1,0-0.2,0
		c-0.2,0-0.2,0.2-0.2,0.4c0,0.1,0,0.2,0.1,0.2c0,0.1,0.1,0.1,0.2,0.1c0,0,0.1,0,0.2,0C105.9,73.7,105.9,73.7,106,73.7z"/>
	<path class="st0" d="M110.2,74.5c-0.1,0-0.3,0.1-0.5,0.1c-0.3,0-0.6-0.1-0.8-0.3c-0.2-0.2-0.3-0.5-0.3-0.9v-1.9h-0.4v-0.9h0.4v-1.1
		h1v1.1h1v0.9h-1v1.9c0,0.1,0,0.2,0.1,0.3c0.1,0.1,0.2,0.1,0.3,0.1c0.2,0,0.3-0.1,0.4-0.2l0.3,0.8C110.5,74.4,110.4,74.5,110.2,74.5
		z"/>
	<path class="st0" d="M111.7,70.1c-0.2,0-0.3-0.1-0.4-0.2c-0.1-0.1-0.2-0.3-0.2-0.4c0-0.2,0.1-0.3,0.2-0.4c0.1-0.1,0.3-0.2,0.4-0.2
		s0.3,0.1,0.4,0.2s0.2,0.3,0.2,0.4c0,0.2-0.1,0.3-0.2,0.4S111.8,70.1,111.7,70.1z M111.2,74.5v-4h1v4H111.2z"/>
	<path class="st0" d="M114.6,74.6c-0.4,0-0.7-0.1-1-0.3c-0.3-0.2-0.5-0.5-0.5-0.8c0-0.1-0.1-0.3-0.1-0.4s0-0.3,0-0.5s0-0.4,0-0.5
		c0-0.1,0-0.3,0.1-0.4c0.1-0.3,0.3-0.6,0.5-0.8c0.3-0.2,0.6-0.3,1-0.3c0.4,0,0.8,0.1,1,0.3c0.3,0.2,0.5,0.5,0.5,0.8
		c0,0.1,0.1,0.3,0.1,0.4c0,0.1,0,0.3,0,0.5s0,0.4,0,0.5c0,0.1,0,0.3-0.1,0.4c0,0.2-0.1,0.3-0.2,0.5c-0.1,0.1-0.2,0.3-0.3,0.4
		c-0.1,0.1-0.3,0.2-0.5,0.2C115,74.6,114.8,74.6,114.6,74.6z M114.6,73.7c0.2,0,0.3,0,0.4-0.1s0.2-0.2,0.2-0.3c0-0.1,0-0.2,0-0.4
		c0-0.1,0-0.2,0-0.4c0-0.1,0-0.2,0-0.4c0-0.1,0-0.2,0-0.4c0-0.1-0.1-0.2-0.2-0.3c-0.1-0.1-0.2-0.1-0.4-0.1c-0.2,0-0.3,0-0.4,0.1
		c-0.1,0.1-0.2,0.2-0.2,0.4c0,0.1,0,0.2,0,0.3c0,0.1,0,0.2,0,0.4c0,0.1,0,0.2,0,0.4c0,0.1,0,0.2,0,0.3c0,0.1,0.1,0.3,0.2,0.4
		C114.3,73.7,114.4,73.7,114.6,73.7z"/>
	<path class="st0" d="M118,74.5h-1v-4h0.8l0,0.4c0.1-0.1,0.2-0.3,0.4-0.3s0.3-0.1,0.5-0.1c0.4,0,0.7,0.1,1,0.4
		c0.2,0.3,0.4,0.6,0.4,1v2.7h-1v-2.6c0-0.2,0-0.3-0.1-0.4c-0.1-0.1-0.2-0.2-0.4-0.2c-0.2,0-0.3,0.1-0.4,0.2
		c-0.1,0.1-0.2,0.2-0.2,0.4V74.5z"/>
	<path class="st0" d="M121.5,74.6c-0.2,0-0.4-0.1-0.5-0.2c-0.1-0.1-0.2-0.3-0.2-0.5c0-0.1,0-0.2,0-0.2c0-0.1,0.1-0.2,0.1-0.2
		c0.1-0.1,0.1-0.1,0.2-0.1c0.1,0,0.2,0,0.3,0c0.1,0,0.2,0,0.3,0c0.1,0,0.2,0.1,0.2,0.1c0.1,0.1,0.1,0.1,0.1,0.2
		c0,0.1,0.1,0.2,0.1,0.3c0,0.1,0,0.2-0.1,0.3c0,0.1-0.1,0.1-0.1,0.2c-0.1,0.1-0.1,0.1-0.2,0.1C121.7,74.6,121.6,74.6,121.5,74.6z"/>
	<path class="st0" d="M124.4,74.5v-1h1v-3.3h-0.9v-0.9h2.9v0.9h-0.9v3.3h1v1H124.4z"/>
	<path class="st0" d="M129.1,74.5h-1v-4h0.8l0,0.4c0.1-0.1,0.2-0.3,0.4-0.3s0.3-0.1,0.5-0.1c0.4,0,0.7,0.1,1,0.4
		c0.2,0.3,0.4,0.6,0.4,1v2.7h-1v-2.6c0-0.2,0-0.3-0.1-0.4c-0.1-0.1-0.2-0.2-0.4-0.2c-0.2,0-0.3,0.1-0.4,0.2
		c-0.1,0.1-0.2,0.2-0.2,0.4V74.5z"/>
	<path class="st0" d="M133.6,74.6c-0.4,0-0.8-0.1-1-0.3c-0.3-0.2-0.4-0.5-0.5-0.8c0-0.1-0.1-0.3-0.1-0.4s0-0.3,0-0.5s0-0.4,0-0.5
		s0-0.3,0.1-0.4c0.1-0.3,0.2-0.6,0.5-0.8c0.3-0.2,0.6-0.3,1-0.3c0.4,0,0.7,0.1,1,0.3c0.3,0.2,0.4,0.4,0.5,0.8c0,0.2,0,0.3,0,0.5v0.1
		h-1v-0.1c0-0.1,0-0.1,0-0.1c0,0,0-0.1,0-0.1c0-0.4-0.2-0.5-0.6-0.5c-0.2,0-0.3,0-0.4,0.1c-0.1,0.1-0.1,0.2-0.2,0.4
		c0,0.1,0,0.2,0,0.3c0,0.1,0,0.2,0,0.4c0,0.1,0,0.2,0,0.3c0,0.1,0,0.2,0,0.3c0,0.2,0.1,0.3,0.2,0.4c0.1,0.1,0.2,0.2,0.4,0.2
		s0.3-0.1,0.5-0.2c0.1-0.1,0.2-0.2,0.3-0.4l0.7,0.6c-0.1,0.3-0.4,0.5-0.6,0.6C134.2,74.5,133.9,74.6,133.6,74.6z"/>
	<path class="st0" d="M138,74.1c-0.1,0.2-0.2,0.3-0.4,0.3s-0.3,0.1-0.5,0.1c-0.4,0-0.7-0.1-1-0.4c-0.2-0.2-0.3-0.6-0.3-1v-2.7h1v2.6
		c0,0.2,0,0.3,0.1,0.4c0.1,0.1,0.2,0.2,0.4,0.2c0.2,0,0.3-0.1,0.4-0.2c0.1-0.1,0.2-0.2,0.2-0.4v-2.6h1v4h-0.8L138,74.1z"/>
	<path class="st0" d="M141.6,74.6c-0.2,0-0.4,0-0.6-0.1c-0.2-0.1-0.3-0.2-0.4-0.3l0,0.3h-0.8V69h1v1.7c0.1-0.1,0.2-0.2,0.4-0.2
		c0.1-0.1,0.3-0.1,0.5-0.1c0.4,0,0.7,0.1,0.9,0.3c0.2,0.2,0.4,0.5,0.5,0.8c0,0.1,0,0.3,0.1,0.4s0,0.3,0,0.5s0,0.4,0,0.5
		c0,0.1,0,0.3-0.1,0.4c-0.1,0.4-0.2,0.6-0.5,0.8C142.3,74.5,142,74.6,141.6,74.6z M141.5,73.7c0.2,0,0.3-0.1,0.4-0.2
		c0.1-0.1,0.2-0.2,0.2-0.4c0-0.1,0-0.2,0-0.3c0-0.1,0-0.2,0-0.4s0-0.2,0-0.4c0-0.1,0-0.2,0-0.3c0-0.2-0.1-0.3-0.2-0.4
		s-0.3-0.1-0.4-0.1s-0.3,0.1-0.4,0.2c-0.1,0.1-0.2,0.2-0.2,0.4c0,0.1,0,0.2,0,0.3c0,0.1,0,0.2,0,0.3s0,0.2,0,0.4c0,0.1,0,0.2,0,0.3
		c0,0.2,0.1,0.3,0.2,0.4C141.2,73.7,141.3,73.7,141.5,73.7z"/>
	<path class="st0" d="M145.7,74.4c-0.1,0.1-0.2,0.1-0.3,0.1s-0.3,0.1-0.4,0.1c-0.1,0-0.2,0-0.3,0s-0.2,0-0.2-0.1
		c-0.3-0.1-0.5-0.2-0.6-0.4s-0.2-0.4-0.2-0.7c0-0.3,0.1-0.5,0.2-0.7s0.3-0.3,0.6-0.4c0.1,0,0.2,0,0.3-0.1c0.1,0,0.2,0,0.4,0
		c0.2,0,0.4,0,0.6,0.1v-0.5c0-0.2,0-0.3-0.1-0.4c-0.1-0.1-0.2-0.1-0.4-0.1c-0.1,0-0.3,0-0.4,0.1c-0.1,0.1-0.2,0.2-0.3,0.4l-0.8-0.5
		c0.1-0.1,0.2-0.3,0.2-0.4s0.2-0.2,0.3-0.3c0.1-0.1,0.2-0.1,0.4-0.2s0.3-0.1,0.5-0.1c0.2,0,0.4,0,0.6,0.1c0.2,0.1,0.3,0.2,0.5,0.3
		c0.1,0.1,0.2,0.3,0.3,0.4c0.1,0.2,0.1,0.3,0.1,0.5v2.7h-0.8l0-0.3C145.9,74.3,145.8,74.3,145.7,74.4
		C145.8,74.3,145.8,74.4,145.7,74.4z M145.2,73.7c0.1,0,0.1,0,0.2,0c0.1,0,0.1,0,0.2,0c0.1,0,0.1-0.1,0.2-0.1c0-0.1,0.1-0.1,0.1-0.2
		c0-0.1,0-0.2-0.1-0.2c0-0.1-0.1-0.1-0.2-0.1c0,0-0.1,0-0.2,0c-0.1,0-0.1,0-0.2,0s-0.1,0-0.2,0c-0.1,0-0.1,0-0.2,0
		c-0.2,0-0.2,0.2-0.2,0.4c0,0.1,0,0.2,0.1,0.2c0,0.1,0.1,0.1,0.2,0.1c0,0,0.1,0,0.2,0C145.1,73.7,145.2,73.7,145.2,73.7z"/>
	<path class="st0" d="M149.5,74.5c-0.1,0-0.3,0.1-0.5,0.1c-0.3,0-0.6-0.1-0.8-0.3c-0.2-0.2-0.3-0.5-0.3-0.9v-1.9h-0.4v-0.9h0.4v-1.1
		h1v1.1h1v0.9h-1v1.9c0,0.1,0,0.2,0.1,0.3c0.1,0.1,0.2,0.1,0.3,0.1c0.2,0,0.3-0.1,0.4-0.2l0.3,0.8C149.7,74.4,149.6,74.5,149.5,74.5
		z"/>
	<path class="st0" d="M150.9,70.1c-0.2,0-0.3-0.1-0.4-0.2c-0.1-0.1-0.2-0.3-0.2-0.4c0-0.2,0.1-0.3,0.2-0.4c0.1-0.1,0.3-0.2,0.4-0.2
		s0.3,0.1,0.4,0.2s0.2,0.3,0.2,0.4c0,0.2-0.1,0.3-0.2,0.4S151,70.1,150.9,70.1z M150.4,74.5v-4h1v4H150.4z"/>
	<path class="st0" d="M153.8,74.6c-0.4,0-0.7-0.1-1-0.3c-0.3-0.2-0.5-0.5-0.5-0.8c0-0.1-0.1-0.3-0.1-0.4s0-0.3,0-0.5s0-0.4,0-0.5
		c0-0.1,0-0.3,0.1-0.4c0.1-0.3,0.3-0.6,0.5-0.8c0.3-0.2,0.6-0.3,1-0.3c0.4,0,0.8,0.1,1,0.3c0.3,0.2,0.5,0.5,0.5,0.8
		c0,0.1,0.1,0.3,0.1,0.4c0,0.1,0,0.3,0,0.5s0,0.4,0,0.5c0,0.1,0,0.3-0.1,0.4c0,0.2-0.1,0.3-0.2,0.5c-0.1,0.1-0.2,0.3-0.3,0.4
		c-0.1,0.1-0.3,0.2-0.5,0.2C154.2,74.6,154,74.6,153.8,74.6z M153.8,73.7c0.2,0,0.3,0,0.4-0.1s0.2-0.2,0.2-0.3c0-0.1,0-0.2,0-0.4
		c0-0.1,0-0.2,0-0.4c0-0.1,0-0.2,0-0.4c0-0.1,0-0.2,0-0.4c0-0.1-0.1-0.2-0.2-0.3c-0.1-0.1-0.2-0.1-0.4-0.1c-0.2,0-0.3,0-0.4,0.1
		c-0.1,0.1-0.2,0.2-0.2,0.4c0,0.1,0,0.2,0,0.3c0,0.1,0,0.2,0,0.4c0,0.1,0,0.2,0,0.4c0,0.1,0,0.2,0,0.3c0,0.1,0.1,0.3,0.2,0.4
		C153.5,73.7,153.6,73.7,153.8,73.7z"/>
	<path class="st0" d="M157.2,74.5h-1v-4h0.8l0,0.4c0.1-0.1,0.2-0.3,0.4-0.3s0.3-0.1,0.5-0.1c0.4,0,0.7,0.1,1,0.4
		c0.2,0.3,0.4,0.6,0.4,1v2.7h-1v-2.6c0-0.2,0-0.3-0.1-0.4c-0.1-0.1-0.2-0.2-0.4-0.2c-0.2,0-0.3,0.1-0.4,0.2
		c-0.1,0.1-0.2,0.2-0.2,0.4V74.5z"/>
</g>
</svg>
